# -*- coding: utf-8 mode: shell-script -*-
#
# This input file is the same as 01-carbon_atom.01-ground_state.inp
# except for the use of parallel LOBPCG.

ParStates = 2

CalculationMode = gs
fromScratch = yes
UnitsOutput = ev_angstrom

%Coordinates
"C" | 0 | 0 | 0
%

Spacing = 0.19*angstrom
Radius = 5.0*angstrom

SpinComponents = polarized

ExtraStates = 2
%Occupations
 2/3 | 2/3 | 2/3
 0 | 0 | 0
%

XCFunctional = lda_x + lda_c_pz

EigenSolver = lobpcg
ExperimentalFeatures = yes

ConvRelDens = 1e-6

PoissonSolver = fft
PoissonFFTKernel = multipole_correction

FilterPotentials = filter_none

MixField = density

LCAOStart = lcao_full
