CalculationMode = gs

PeriodicDimensions = 3

BoxShape = parallelepiped

ExperimentalFeatures = yes

EigenSolver = cg
ConvRelDens = 5e-6
EigensolverTolerance = 1e-8
CGOrthogonalizeAll = yes

a = 7.8809

%Species
"Ni" | species_pseudo | hubbard_l | 2 | hubbard_u | 7.0/27.21138
%
DFTULevel = dft_u_acbn0

PseudopotentialSet=hscv_lda

%LatticeParameters
  a | a | a
%

%LatticeVectors
 0.0 | 1/2 | 1/2
 1/2 | 0.0 | 1/2
 1.0 | 1.0 | 0.0
%

%ReducedCoordinates
 "Ni" | 0.0 | 0.0 | 0.0
 "Ni" | 0.0 | 0.0 | 0.5
 "O"  | 0.5 | 0.5 | 0.25
 "O"  | 0.5 | 0.5 | 0.75
%

Spacing = 0.5

FromScratch = no

SpinComponents = spinors

%KPointsGrid
2 | 2 | 1
%
KPointsUseSymmetries = yes
KPointsUseTimeReversal = no

AOTruncation = ao_box
OutputLDA_U = occ_matrices

StatesPack = yes

